{
    "name": "byfn-network",
    "x-type": "hlfv1",
    "version": "1.0.0",
    "channels": {
        "mychannel": {
            "orderers": [
                "orderer1.example.com",
                "orderer2.example.com",
                "orderer3.example.com"
            ],
            "peers": {
                "peer0.org1.example.com": {
                    "endorsingPeer": true,
                    "chaincodeQuery": true,
                    "eventSource": true
                },
                "peer0.org2.example.com": {
                    "endorsingPeer": true,
                    "chaincodeQuery": true,
                    "eventSource": true
                },
                "peer0.org3.example.com": {
                    "endorsingPeer": true,
                    "chaincodeQuery": true,
                    "eventSource": true
                },
                "peer0.org4.example.com": {
                    "endorsingPeer": true,
                    "chaincodeQuery": true,
                    "eventSource": true
                },
                "peer0.org5.example.com": {
                    "endorsingPeer": true,
                    "chaincodeQuery": true,
                    "eventSource": true
                }
            }
        }
    },
    "organizations": {
        "Org1": {
            "mspid": "Org1MSP",
            "peers": [
                "peer0.org1.example.com"
            ],
            "certificateAuthorities": [
                "ca0.org1.example.com"
            ]
        },
        "Org2": {
            "mspid": "Org2MSP",
            "peers": [
                "peer0.org2.example.com"
            ],
            "certificateAuthorities": [
                "ca0.org2.example.com"
            ]
        },
        "Org3": {
            "mspid": "Org3MSP",
            "peers": [
                "peer0.org3.example.com"
            ],
            "certificateAuthorities": [
                "ca0.org3.example.com"
            ]
        },
        "Org4": {
            "mspid": "Org4MSP",
            "peers": [
                "peer0.org4.example.com"
            ],
            "certificateAuthorities": [
                "ca0.org4.example.com"
            ]
        },
        "Org5": {
            "mspid": "Org5MSP",
            "peers": [
                "peer0.org5.example.com"
            ],
            "certificateAuthorities": [
                "ca0.org5.example.com"
            ]
        }
    },
    "orderers": {
        "orderer1.example.com": {
            "url": "grpcs://0.0.0.10:7050",
            "grpcOptions": {
                "ssl-target-name-override": "orderer1.example.com"
            },
            "tlsCACerts": {
                "pem": "INSERT_ORDERER_CA_CERT"
            }
        },
        "orderer2.example.com": {
            "url": "grpcs://0.0.0.11:7050",
            "grpcOptions": {
                "ssl-target-name-override": "orderer2.example.com"
            },
            "tlsCACerts": {
                "pem": "INSERT_ORDERER_CA_CERT"
            }
        },
        "orderer3.example.com": {
            "url": "grpcs://0.0.0.12:7050",
            "grpcOptions": {
                "ssl-target-name-override": "orderer3.example.com"
            },
            "tlsCACerts": {
                "pem": "INSERT_ORDERER_CA_CERT"
            }
        }
    },
    "peers": {
        "peer0.org1.example.com": {
            "url": "grpcs://0.0.0.5:7051",
            "eventUrl": "grpcs://0.0.0.5:7053",
            "grpcOptions": {
                "ssl-target-name-override": "peer0.org1.example.com"
            },
            "tlsCACerts": {
                "pem": "INSERT_ORG1_CA_CERT"
            }
        },
        "peer0.org2.example.com": {
            "url": "grpcs://0.0.0.6:7051",
            "eventUrl": "grpcs://0.0.0.6:7053",
            "grpcOptions": {
                "ssl-target-name-override": "peer0.org2.example.com"
            },
            "tlsCACerts": {
                "pem": "INSERT_ORG2_CA_CERT"
            }
        },
        "peer0.org3.example.com": {
            "url": "grpcs://0.0.0.7:7051",
            "eventUrl": "grpcs://0.0.0.7:7053",
            "grpcOptions": {
                "ssl-target-name-override": "peer0.org3.example.com"
            },
            "tlsCACerts": {
                "pem": "INSERT_ORG3_CA_CERT"
            }
        },
        "peer0.org4.example.com": {
            "url": "grpcs://0.0.0.8:7051",
            "eventUrl": "grpcs://0.0.0.8:7053",
            "grpcOptions": {
                "ssl-target-name-override": "peer0.org4.example.com"
            },
            "tlsCACerts": {
                "pem": "INSERT_ORG4_CA_CERT"
            }
        },
        "peer0.org5.example.com": {
            "url": "grpcs://0.0.0.9:7051",
            "eventUrl": "grpcs://0.0.0.9:7053",
            "grpcOptions": {
                "ssl-target-name-override": "peer0.org5.example.com"
            },
            "tlsCACerts": {
                "pem": "INSERT_ORG5_CA_CERT"
            }
        }
    },
    "certificateAuthorities": {
        "ca0.org1.example.com": {
            "url": "https://123.4.4.4:7054",
            "caName": "ca-org1",
            "httpOptions": {
                "verify": false
            }
        },
        "ca0.org2.example.com": {
            "url": "https://0.0.0.1:7054",
            "caName": "ca-org2",
            "httpOptions": {
                "verify": false
            }
        },
        "ca0.org3.example.com": {
            "url": "https://0.0.0.2:7054",
            "caName": "ca-org3",
            "httpOptions": {
                "verify": false
            }
        },
        "ca0.org4.example.com": {
            "url": "https://0.0.0.3:7054",
            "caName": "ca-org4",
            "httpOptions": {
                "verify": false
            }
        },
        "ca0.org5.example.com": {
            "url": "https://0.0.0.4:7054",
            "caName": "ca-org5",
            "httpOptions": {
                "verify": false
            }
        }
    }
}